\relax 
\providecommand\hyper@newdestlabel[2]{}
\providecommand\HyperFirstAtBeginDocument{\AtBeginDocument}
\HyperFirstAtBeginDocument{\ifx\hyper@anchor\@undefined
\global\let\oldcontentsline\contentsline
\gdef\contentsline#1#2#3#4{\oldcontentsline{#1}{#2}{#3}}
\global\let\oldnewlabel\newlabel
\gdef\newlabel#1#2{\newlabelxx{#1}#2}
\gdef\newlabelxx#1#2#3#4#5#6{\oldnewlabel{#1}{{#2}{#3}}}
\AtEndDocument{\ifx\hyper@anchor\@undefined
\let\contentsline\oldcontentsline
\let\newlabel\oldnewlabel
\fi}
\fi}
\global\let\hyper@last\relax 
\gdef\HyperFirstAtBeginDocument#1{#1}
\providecommand\HyField@AuxAddToFields[1]{}
\providecommand\HyField@AuxAddToCoFields[2]{}
\citation{VAE}
\citation{IAF}
\citation{TRICK}
\citation{VLAE}
\citation{THESIS}
\bibcite{THESIS}{1}
\@writefile{toc}{\contentsline {section}{\numberline {1}Main Idea \& Objectives}{1}{section.1}}
\@writefile{toc}{\contentsline {section}{\numberline {2}Challenges}{1}{section.2}}
\@writefile{toc}{\contentsline {section}{\numberline {3}Datasets}{1}{section.3}}
\bibcite{VAE}{2}
\bibcite{IAF}{3}
\bibcite{TRICK}{4}
\bibcite{VLAE}{5}
\bibcite{Semi}{6}
